Project 1
…
1.Tidying: Rearranging Wide/Long

library(tidyverse)
library(tidyr)
library(dplyr)
library(data.table)
library(jtools)

install.packages("fivethirtyeightdata", repos = "https://fivethirtyeightdata.github.io/drat/", 
    type = "source")
library(fivethirtyeight)
library(fivethirtyeightdata)
spi_global_rankings

## # A tibble: 576 x 7
##    name                league                   rank prev_rank   off   def   spi
##    <chr>               <chr>                   <int>     <int> <dbl> <dbl> <dbl>
##  1 Manchester City     Barclays Premier League     1         1   2.8   0.2  92.5
##  2 Barcelona           Spanish Primera Divisi…     2         2   3.1   0.4  92  
##  3 Bayern Munich       German Bundesliga           3         3   3.1   0.4  91.9
##  4 Real Madrid         Spanish Primera Divisi…     4         4   3.1   0.5  91.3
##  5 Liverpool           Barclays Premier League     5         6   2.7   0.4  89.5
##  6 Juventus            Italy Serie A               6         5   2.5   0.3  89.4
##  7 Paris Saint-Germain French Ligue 1              7         7   2.8   0.4  88.9
##  8 Atletico Madrid     Spanish Primera Divisi…     8         8   2.3   0.3  87.1
##  9 Tottenham Hotspur   Barclays Premier League     9         9   2.5   0.5  85.7
## 10 Chelsea             Barclays Premier League    10        10   2.4   0.5  85.1
## # … with 566 more rows

spi_matches

## # A tibble: 34,109 x 23
##    season date       league_id league team1 team2  spi1  spi2  prob1  prob2
##     <dbl> <date>         <dbl> <chr>  <chr> <chr> <dbl> <dbl>  <dbl>  <dbl>
##  1   2016 2016-08-12      1843 Frenc… Bast… Pari…  51.2  85.7 0.0463 0.838 
##  2   2016 2016-08-12      1843 Frenc… AS M… Guin…  68.8  56.5 0.571  0.167 
##  3   2016 2016-08-13      2411 Barcl… Hull… Leic…  53.6  66.8 0.346  0.362 
##  4   2016 2016-08-13      2411 Barcl… Crys… West…  55.2  58.7 0.421  0.294 
##  5   2016 2016-08-13      2411 Barcl… Ever… Tott…  68.0  73.2 0.391  0.340 
##  6   2016 2016-08-13      2411 Barcl… Midd… Stok…  56.3  60.4 0.438  0.269 
##  7   2016 2016-08-13      2411 Barcl… Burn… Swan…  59.0  59.7 0.448  0.266 
##  8   2016 2016-08-13      2411 Barcl… Sout… Watf…  69.5  59.3 0.576  0.187 
##  9   2016 2016-08-13      1843 Frenc… Bord… St E…  62.0  64.9 0.423  0.276 
## 10   2016 2016-08-13      2411 Barcl… Manc… Sund…  86.4  53.6 0.815  0.0525
## # … with 34,099 more rows, and 13 more variables: probtie <dbl>,
## #   proj_score1 <dbl>, proj_score2 <dbl>, importance1 <dbl>, importance2 <dbl>,
## #   score1 <dbl>, score2 <dbl>, xg1 <dbl>, xg2 <dbl>, nsxg1 <dbl>, nsxg2 <dbl>,
## #   adj_score1 <dbl>, adj_score2 <dbl>

rankings <- spi_global_rankings
matches <- spi_matches
matches

## # A tibble: 34,109 x 23
##    season date       league_id league team1 team2  spi1  spi2  prob1  prob2
##     <dbl> <date>         <dbl> <chr>  <chr> <chr> <dbl> <dbl>  <dbl>  <dbl>
##  1   2016 2016-08-12      1843 Frenc… Bast… Pari…  51.2  85.7 0.0463 0.838 
##  2   2016 2016-08-12      1843 Frenc… AS M… Guin…  68.8  56.5 0.571  0.167 
##  3   2016 2016-08-13      2411 Barcl… Hull… Leic…  53.6  66.8 0.346  0.362 
##  4   2016 2016-08-13      2411 Barcl… Crys… West…  55.2  58.7 0.421  0.294 
##  5   2016 2016-08-13      2411 Barcl… Ever… Tott…  68.0  73.2 0.391  0.340 
##  6   2016 2016-08-13      2411 Barcl… Midd… Stok…  56.3  60.4 0.438  0.269 
##  7   2016 2016-08-13      2411 Barcl… Burn… Swan…  59.0  59.7 0.448  0.266 
##  8   2016 2016-08-13      2411 Barcl… Sout… Watf…  69.5  59.3 0.576  0.187 
##  9   2016 2016-08-13      1843 Frenc… Bord… St E…  62.0  64.9 0.423  0.276 
## 10   2016 2016-08-13      2411 Barcl… Manc… Sund…  86.4  53.6 0.815  0.0525
## # … with 34,099 more rows, and 13 more variables: probtie <dbl>,
## #   proj_score1 <dbl>, proj_score2 <dbl>, importance1 <dbl>, importance2 <dbl>,
## #   score1 <dbl>, score2 <dbl>, xg1 <dbl>, xg2 <dbl>, nsxg1 <dbl>, nsxg2 <dbl>,
## #   adj_score1 <dbl>, adj_score2 <dbl>

matches %>% spread(key = "league", value = "importance1")

## # A tibble: 34,109 x 59
##    season date       league_id team1 team2  spi1  spi2  prob1  prob2 probtie
##     <dbl> <date>         <dbl> <chr> <chr> <dbl> <dbl>  <dbl>  <dbl>   <dbl>
##  1   2016 2016-08-12      1843 Bast… Pari…  51.2  85.7 0.0463 0.838    0.116
##  2   2016 2016-08-12      1843 AS M… Guin…  68.8  56.5 0.571  0.167    0.262
##  3   2016 2016-08-13      2411 Hull… Leic…  53.6  66.8 0.346  0.362    0.292
##  4   2016 2016-08-13      2411 Crys… West…  55.2  58.7 0.421  0.294    0.285
##  5   2016 2016-08-13      2411 Ever… Tott…  68.0  73.2 0.391  0.340    0.269
##  6   2016 2016-08-13      2411 Midd… Stok…  56.3  60.4 0.438  0.269    0.293
##  7   2016 2016-08-13      2411 Burn… Swan…  59.0  59.7 0.448  0.266    0.285
##  8   2016 2016-08-13      2411 Sout… Watf…  69.5  59.3 0.576  0.187    0.237
##  9   2016 2016-08-13      1843 Bord… St E…  62.0  64.9 0.423  0.276    0.300
## 10   2016 2016-08-13      2411 Manc… Sund…  86.4  53.6 0.815  0.0525   0.132
## # … with 34,099 more rows, and 49 more variables: proj_score1 <dbl>,
## #   proj_score2 <dbl>, importance2 <dbl>, score1 <dbl>, score2 <dbl>,
## #   xg1 <dbl>, xg2 <dbl>, nsxg1 <dbl>, nsxg2 <dbl>, adj_score1 <dbl>,
## #   adj_score2 <dbl>, `Argentina Primera Division` <dbl>, `Australian
## #   A-League` <dbl>, `Austrian T-Mobile Bundesliga` <dbl>, `Barclays Premier
## #   League` <dbl>, `Belgian Jupiler League` <dbl>, `Brasileiro Série A` <dbl>,
## #   `Chinese Super League` <dbl>, `Danish SAS-Ligaen` <dbl>, `Dutch
## #   Eredivisie` <dbl>, `English League Championship` <dbl>, `English League
## #   One` <dbl>, `English League Two` <dbl>, `French Ligue 1` <dbl>, `French
## #   Ligue 2` <dbl>, `German 2. Bundesliga` <dbl>, `German Bundesliga` <dbl>,
## #   `Greek Super League` <dbl>, `Italy Serie A` <dbl>, `Italy Serie B` <dbl>,
## #   `Japanese J League` <dbl>, `Major League Soccer` <dbl>, `Mexican Primera
## #   Division Torneo Apertura` <dbl>, `Mexican Primera Division Torneo
## #   Clausura` <dbl>, `National Women's Soccer League` <dbl>, `Norwegian
## #   Tippeligaen` <dbl>, `NWSL Challenge Cup` <dbl>, `Portuguese Liga` <dbl>,
## #   `Russian Premier Liga` <dbl>, `Scottish Premiership` <dbl>, `South African
## #   ABSA Premier League` <dbl>, `Spanish Primera Division` <dbl>, `Spanish
## #   Segunda Division` <dbl>, `Swedish Allsvenskan` <dbl>, `Swiss Raiffeisen
## #   Super League` <dbl>, `Turkish Turkcell Super Lig` <dbl>, `UEFA Champions
## #   League` <dbl>, `UEFA Europa League` <dbl>, `United Soccer League` <dbl>

matches %>% gather(key = "importance1", value = "league")  #Untidied here because my data was already neat

## # A tibble: 716,289 x 2
##    importance1 league
##    <chr>       <chr> 
##  1 season      2016  
##  2 season      2016  
##  3 season      2016  
##  4 season      2016  
##  5 season      2016  
##  6 season      2016  
##  7 season      2016  
##  8 season      2016  
##  9 season      2016  
## 10 season      2016  
## # … with 716,279 more rows

rankings

## # A tibble: 576 x 7
##    name                league                   rank prev_rank   off   def   spi
##    <chr>               <chr>                   <int>     <int> <dbl> <dbl> <dbl>
##  1 Manchester City     Barclays Premier League     1         1   2.8   0.2  92.5
##  2 Barcelona           Spanish Primera Divisi…     2         2   3.1   0.4  92  
##  3 Bayern Munich       German Bundesliga           3         3   3.1   0.4  91.9
##  4 Real Madrid         Spanish Primera Divisi…     4         4   3.1   0.5  91.3
##  5 Liverpool           Barclays Premier League     5         6   2.7   0.4  89.5
##  6 Juventus            Italy Serie A               6         5   2.5   0.3  89.4
##  7 Paris Saint-Germain French Ligue 1              7         7   2.8   0.4  88.9
##  8 Atletico Madrid     Spanish Primera Divisi…     8         8   2.3   0.3  87.1
##  9 Tottenham Hotspur   Barclays Premier League     9         9   2.5   0.5  85.7
## 10 Chelsea             Barclays Premier League    10        10   2.4   0.5  85.1
## # … with 566 more rows

rankings %>% spread(key = "league", value = "rank")

## # A tibble: 576 x 36
##    name  prev_rank   off   def   spi `Argentina Prim… `Australian A-L…
##    <chr>     <int> <dbl> <dbl> <dbl>            <int>            <int>
##  1 Manc…         1   2.8   0.2  92.5               NA               NA
##  2 Barc…         2   3.1   0.4  92                 NA               NA
##  3 Baye…         3   3.1   0.4  91.9               NA               NA
##  4 Real…         4   3.1   0.5  91.3               NA               NA
##  5 Live…         6   2.7   0.4  89.5               NA               NA
##  6 Juve…         5   2.5   0.3  89.4               NA               NA
##  7 Pari…         7   2.8   0.4  88.9               NA               NA
##  8 Atle…         8   2.3   0.3  87.1               NA               NA
##  9 Tott…         9   2.5   0.5  85.7               NA               NA
## 10 Chel…        10   2.4   0.5  85.1               NA               NA
## # … with 566 more rows, and 29 more variables: `Austrian T-Mobile
## #   Bundesliga` <int>, `Barclays Premier League` <int>, `Belgian Jupiler
## #   League` <int>, `Brasileiro Série A` <int>, `Chinese Super League` <int>,
## #   `Danish SAS-Ligaen` <int>, `Dutch Eredivisie` <int>, `English League
## #   Championship` <int>, `English League One` <int>, `English League
## #   Two` <int>, `French Ligue 1` <int>, `French Ligue 2` <int>, `German 2.
## #   Bundesliga` <int>, `German Bundesliga` <int>, `Italy Serie A` <int>,
## #   `Japanese J League` <int>, `Major League Soccer` <int>, `Mexican Primera
## #   Division Torneo Apertura` <int>, `Norwegian Tippeligaen` <int>, `Portuguese
## #   Liga` <int>, `Russian Premier Liga` <int>, `Scottish Premiership` <int>,
## #   `South African ABSA Premier League` <int>, `Spanish Primera
## #   Division` <int>, `Spanish Segunda Division` <int>, `Swedish
## #   Allsvenskan` <int>, `Swiss Raiffeisen Super League` <int>, `Turkish
## #   Turkcell Super Lig` <int>, `United Soccer League` <int>

rankings %>% gather(key = "rank", value = "league")  #Untidied here because my data was already neat

## # A tibble: 2,880 x 2
##    rank  league             
##    <chr> <chr>              
##  1 name  Manchester City    
##  2 name  Barcelona          
##  3 name  Bayern Munich      
##  4 name  Real Madrid        
##  5 name  Liverpool          
##  6 name  Juventus           
##  7 name  Paris Saint-Germain
##  8 name  Atletico Madrid    
##  9 name  Tottenham Hotspur  
## 10 name  Chelsea            
## # … with 2,870 more rows

used rankings and matches datasets because they were tidied fine and have the variables I need but I did untidy and retidy. My data looks fine and I will be using spi, spi1, spi1, and rank for my numerical variables.

2. Joining/Merging

left_join(matches, rankings, by = "league")

## # A tibble: 605,288 x 29
##    season date       league_id league team1 team2  spi1  spi2  prob1 prob2
##     <dbl> <date>         <dbl> <chr>  <chr> <chr> <dbl> <dbl>  <dbl> <dbl>
##  1   2016 2016-08-12      1843 Frenc… Bast… Pari…  51.2  85.7 0.0463 0.838
##  2   2016 2016-08-12      1843 Frenc… Bast… Pari…  51.2  85.7 0.0463 0.838
##  3   2016 2016-08-12      1843 Frenc… Bast… Pari…  51.2  85.7 0.0463 0.838
##  4   2016 2016-08-12      1843 Frenc… Bast… Pari…  51.2  85.7 0.0463 0.838
##  5   2016 2016-08-12      1843 Frenc… Bast… Pari…  51.2  85.7 0.0463 0.838
##  6   2016 2016-08-12      1843 Frenc… Bast… Pari…  51.2  85.7 0.0463 0.838
##  7   2016 2016-08-12      1843 Frenc… Bast… Pari…  51.2  85.7 0.0463 0.838
##  8   2016 2016-08-12      1843 Frenc… Bast… Pari…  51.2  85.7 0.0463 0.838
##  9   2016 2016-08-12      1843 Frenc… Bast… Pari…  51.2  85.7 0.0463 0.838
## 10   2016 2016-08-12      1843 Frenc… Bast… Pari…  51.2  85.7 0.0463 0.838
## # … with 605,278 more rows, and 19 more variables: probtie <dbl>,
## #   proj_score1 <dbl>, proj_score2 <dbl>, importance1 <dbl>, importance2 <dbl>,
## #   score1 <dbl>, score2 <dbl>, xg1 <dbl>, xg2 <dbl>, nsxg1 <dbl>, nsxg2 <dbl>,
## #   adj_score1 <dbl>, adj_score2 <dbl>, name <chr>, rank <int>,
## #   prev_rank <int>, off <dbl>, def <dbl>, spi <dbl>

soccer_joined <- left_join(matches, rankings, by = "league")
soccer_joined

## # A tibble: 605,288 x 29
##    season date       league_id league team1 team2  spi1  spi2  prob1 prob2
##     <dbl> <date>         <dbl> <chr>  <chr> <chr> <dbl> <dbl>  <dbl> <dbl>
##  1   2016 2016-08-12      1843 Frenc… Bast… Pari…  51.2  85.7 0.0463 0.838
##  2   2016 2016-08-12      1843 Frenc… Bast… Pari…  51.2  85.7 0.0463 0.838
##  3   2016 2016-08-12      1843 Frenc… Bast… Pari…  51.2  85.7 0.0463 0.838
##  4   2016 2016-08-12      1843 Frenc… Bast… Pari…  51.2  85.7 0.0463 0.838
##  5   2016 2016-08-12      1843 Frenc… Bast… Pari…  51.2  85.7 0.0463 0.838
##  6   2016 2016-08-12      1843 Frenc… Bast… Pari…  51.2  85.7 0.0463 0.838
##  7   2016 2016-08-12      1843 Frenc… Bast… Pari…  51.2  85.7 0.0463 0.838
##  8   2016 2016-08-12      1843 Frenc… Bast… Pari…  51.2  85.7 0.0463 0.838
##  9   2016 2016-08-12      1843 Frenc… Bast… Pari…  51.2  85.7 0.0463 0.838
## 10   2016 2016-08-12      1843 Frenc… Bast… Pari…  51.2  85.7 0.0463 0.838
## # … with 605,278 more rows, and 19 more variables: probtie <dbl>,
## #   proj_score1 <dbl>, proj_score2 <dbl>, importance1 <dbl>, importance2 <dbl>,
## #   score1 <dbl>, score2 <dbl>, xg1 <dbl>, xg2 <dbl>, nsxg1 <dbl>, nsxg2 <dbl>,
## #   adj_score1 <dbl>, adj_score2 <dbl>, name <chr>, rank <int>,
## #   prev_rank <int>, off <dbl>, def <dbl>, spi <dbl>

Here I joined my "matches" dataset with the "rankings" dataset. I joined via the "leagues" variable and I kept the SPI variable as is because that is what I am looking at. I did a left_join without removing any variables because they do not interrupt my data analysis. I chose to do the left_join function because I wanted one tabel that contains its own values along with the common values of the other data set which in this case would be the "league" variable found in both data sets.

Note that the echo = FALSE parameter was added to the code chunk to prevent printing of the R code that generated the plot.

3. Wrangling

library(dplyr)
soccer_spi_omit <- na.omit(soccer_joined$spi)
filter(soccer_joined, spi > 80)

## # A tibble: 23,422 x 29
##    season date       league_id league team1 team2  spi1  spi2  prob1 prob2
##     <dbl> <date>         <dbl> <chr>  <chr> <chr> <dbl> <dbl>  <dbl> <dbl>
##  1   2016 2016-08-12      1843 Frenc… Bast… Pari…  51.2  85.7 0.0463 0.838
##  2   2016 2016-08-12      1843 Frenc… AS M… Guin…  68.8  56.5 0.571  0.167
##  3   2016 2016-08-13      2411 Barcl… Hull… Leic…  53.6  66.8 0.346  0.362
##  4   2016 2016-08-13      2411 Barcl… Hull… Leic…  53.6  66.8 0.346  0.362
##  5   2016 2016-08-13      2411 Barcl… Hull… Leic…  53.6  66.8 0.346  0.362
##  6   2016 2016-08-13      2411 Barcl… Hull… Leic…  53.6  66.8 0.346  0.362
##  7   2016 2016-08-13      2411 Barcl… Hull… Leic…  53.6  66.8 0.346  0.362
##  8   2016 2016-08-13      2411 Barcl… Hull… Leic…  53.6  66.8 0.346  0.362
##  9   2016 2016-08-13      2411 Barcl… Crys… West…  55.2  58.7 0.421  0.294
## 10   2016 2016-08-13      2411 Barcl… Crys… West…  55.2  58.7 0.421  0.294
## # … with 23,412 more rows, and 19 more variables: probtie <dbl>,
## #   proj_score1 <dbl>, proj_score2 <dbl>, importance1 <dbl>, importance2 <dbl>,
## #   score1 <dbl>, score2 <dbl>, xg1 <dbl>, xg2 <dbl>, nsxg1 <dbl>, nsxg2 <dbl>,
## #   adj_score1 <dbl>, adj_score2 <dbl>, name <chr>, rank <int>,
## #   prev_rank <int>, off <dbl>, def <dbl>, spi <dbl>

arrange(soccer_joined, spi)

## # A tibble: 605,288 x 29
##    season date       league_id league team1 team2  spi1  spi2 prob1 prob2
##     <dbl> <date>         <dbl> <chr>  <chr> <chr> <dbl> <dbl> <dbl> <dbl>
##  1   2018 2018-08-04      2414 Engli… Grim… Fore…  6.9  11.1  0.350 0.385
##  2   2018 2018-08-04      2414 Engli… Swin… Macc… 13.2   8.8  0.485 0.26 
##  3   2018 2018-08-04      2414 Engli… Nort… Linc… 19.3  15.5  0.463 0.284
##  4   2018 2018-08-04      2414 Engli… Stev… Tran… 10.0   9.82 0.413 0.316
##  5   2018 2018-08-04      2414 Engli… Mans… Newp… 17     8.43 0.555 0.197
##  6   2018 2018-08-04      2414 Engli… Crew… More… 11.8   7.71 0.471 0.259
##  7   2018 2018-08-04      2414 Engli… Bury  Yeov… 19.2   8.11 0.608 0.175
##  8   2018 2018-08-04      2414 Engli… Chel… Craw…  9.65 10.9  0.396 0.367
##  9   2018 2018-08-04      2414 Engli… Nott… Colc… 14.4   8.46 0.489 0.236
## 10   2018 2018-08-04      2414 Engli… Exet… Carl… 15.9  12.5  0.450 0.281
## # … with 605,278 more rows, and 19 more variables: probtie <dbl>,
## #   proj_score1 <dbl>, proj_score2 <dbl>, importance1 <dbl>, importance2 <dbl>,
## #   score1 <dbl>, score2 <dbl>, xg1 <dbl>, xg2 <dbl>, nsxg1 <dbl>, nsxg2 <dbl>,
## #   adj_score1 <dbl>, adj_score2 <dbl>, name <chr>, rank <int>,
## #   prev_rank <int>, off <dbl>, def <dbl>, spi <dbl>

arrange(soccer_joined, desc(spi))

## # A tibble: 605,288 x 29
##    season date       league_id league team1 team2  spi1  spi2 prob1  prob2
##     <dbl> <date>         <dbl> <chr>  <chr> <chr> <dbl> <dbl> <dbl>  <dbl>
##  1   2016 2016-08-13      2411 Barcl… Hull… Leic…  53.6  66.8 0.346 0.362 
##  2   2016 2016-08-13      2411 Barcl… Crys… West…  55.2  58.7 0.421 0.294 
##  3   2016 2016-08-13      2411 Barcl… Ever… Tott…  68.0  73.2 0.391 0.340 
##  4   2016 2016-08-13      2411 Barcl… Midd… Stok…  56.3  60.4 0.438 0.269 
##  5   2016 2016-08-13      2411 Barcl… Burn… Swan…  59.0  59.7 0.448 0.266 
##  6   2016 2016-08-13      2411 Barcl… Sout… Watf…  69.5  59.3 0.576 0.187 
##  7   2016 2016-08-13      2411 Barcl… Manc… Sund…  86.4  53.6 0.815 0.0525
##  8   2016 2016-08-14      2411 Barcl… AFC … Manc…  61.6  80.5 0.211 0.546 
##  9   2016 2016-08-14      2411 Barcl… Arse… Live…  82.6  77.4 0.555 0.212 
## 10   2016 2016-08-15      2411 Barcl… Chel… West…  80.7  63.3 0.691 0.118 
## # … with 605,278 more rows, and 19 more variables: probtie <dbl>,
## #   proj_score1 <dbl>, proj_score2 <dbl>, importance1 <dbl>, importance2 <dbl>,
## #   score1 <dbl>, score2 <dbl>, xg1 <dbl>, xg2 <dbl>, nsxg1 <dbl>, nsxg2 <dbl>,
## #   adj_score1 <dbl>, adj_score2 <dbl>, name <chr>, rank <int>,
## #   prev_rank <int>, off <dbl>, def <dbl>, spi <dbl>

soccer_joined %>% select(league, name, spi, rank)

## # A tibble: 605,288 x 4
##    league         name                  spi  rank
##    <chr>          <chr>               <dbl> <int>
##  1 French Ligue 1 Paris Saint-Germain  88.9     7
##  2 French Ligue 1 Lyon                 76.2    24
##  3 French Ligue 1 Marseille            74.8    32
##  4 French Ligue 1 AS Monaco            70.7    49
##  5 French Ligue 1 Nice                 63.7    84
##  6 French Ligue 1 Bordeaux             62.3    95
##  7 French Ligue 1 Stade Rennes         61.4   104
##  8 French Ligue 1 St Etienne           61.2   106
##  9 French Ligue 1 Montpellier          60.7   108
## 10 French Ligue 1 Nantes               60.5   110
## # … with 605,278 more rows
…
